Telescope,X,Y,Z,Radius
1,-20,65,16,12
2,-20,-65,16,12
3,80,0,16,12
4,-120,0,16,12
5,0,0,10,7
6,0,151.2,10,7
7,0,-151.2,10,7
8,146.656,75.6,10,7
9,146.656,-75.6,10,7
10,-146.656,85.6,10,7
11,-146.656,-85.6,10,7
12,154.205,238.474,10,7
13,154.205,-238.474,10,7
14,308.41,0,10,7
15,-154.205,238.474,10,7
16,-154.205,-238.474,10,7
17,-308.41,0,10,7
18,0,325.242,10,7
19,0,-325.242,10,7
20,315.468,162.621,10,7
21,315.468,-162.621,10,7
22,-315.468,162.621,10,7
23,-315.468,-162.621,10,7
24,291.085,450.155,10,7
25,291.085,-450.155,10,7
26,582.17,0,10,7
27,-291.085,450.155,10,7
28,-291.085,-450.155,10,7
29,-582.17,0,10,7
30,205.5,158.9,5,2.8
31,205.5,-158.9,5,2.8
32,-205.5,158.9,5,2.8
33,-205.5,-158.9,5,2.8
34,164.823,424.824,5,2.8
35,164.823,-424.824,5,2.8
36,-164.823,424.824,5,2.8
37,-164.823,-424.824,5,2.8
38,494.469,110,5,2.8
39,494.469,-110,5,2.8
40,-494.469,110,5,2.8
41,-494.469,-110,5,2.8
42,0,519.795,5,2.8
43,0,-519.795,5,2.8
44,391.606,403.739,5,2.8
45,391.606,-403.739,5,2.8
46,-391.606,403.739,5,2.8
47,-391.606,-403.739,5,2.8
48,618.073,318.611,5,2.8
49,618.073,-318.611,5,2.8
50,-618.073,318.611,5,2.8
51,-618.073,-318.611,5,2.8
52,0,723.527,5,2.8
53,0,-723.527,5,2.8
54,820,0,5,2.8
55,-820,0,5,2.8
56,435.304,673.186,5,2.8
57,435.304,-673.186,5,2.8
58,-435.304,673.186,5,2.8
59,-435.304,-673.186,5,2.8
60,220.844,796.903,5,2.8
61,220.844,-796.903,5,2.8
62,662.533,569.216,5,2.8
63,662.533,-569.216,5,2.8
64,883.377,227.687,5,2.8
65,883.377,-227.687,5,2.8
66,-220.844,796.903,5,2.8
67,-220.844,-796.903,5,2.8
68,-662.533,569.216,5,2.8
69,-662.533,-569.216,5,2.8
70,-883.377,227.687,5,2.8
71,-883.377,-227.687,5,2.8
72,0,944.301,5,2.8
73,0,-944.301,5,2.8
74,915.923,472.151,5,2.8
75,915.923,-472.151,5,2.8
76,-915.923,472.151,5,2.8
77,-915.923,-472.151,5,2.8
78,1100,0,5,2.8
79,-1100,0,5,2.8
80,471.012,971.21,5,2.8
81,471.012,-971.21,5,2.8
82,706.518,849.809,5,2.8
83,706.518,-849.809,5,2.8
84,-471.012,971.21,5,2.8
85,-471.012,-971.21,5,2.8
86,-706.518,849.809,5,2.8
87,-706.518,-849.809,5,2.8
88,239.197,1109.735,5,2.8
89,239.197,-1109.735,5,2.8
90,956.787,739.823,5,2.8
91,956.787,-739.823,5,2.8
92,-239.197,1109.735,5,2.8
93,-239.197,-1109.735,5,2.8
94,-956.787,739.823,5,2.8
95,-956.787,-739.823,5,2.8
96,1195.984,369.912,5,2.8
97,1195.984,-369.912,5,2.8
98,-1195.984,369.912,5,2.8
99,-1195.984,-369.912,5,2.8
